<?xml version="1.0" encoding="utf-8"?>
<COLLADA xmlns="http://www.collada.org/2005/11/COLLADASchema" version="1.4.1">
<asset>
	<contributor>
		<author>Anonymous</author>
		<authoring_tool>Collada Exporter for Blender 2.6+, by Juan Linietsky (juan@codenix.com)</authoring_tool>
	</contributor>
	<created>2018-04-18T10:15:08Z</created>
	<modified>2018-04-18T10:15:08Z</modified>
	<unit meter="1.0" name="meter"/>
	<up_axis>Z_UP</up_axis>
</asset>
<library_geometries>
	<geometry id="id-mesh-2" name="Cube.005">
		<mesh>
			<source id="id-mesh-2-positions">
				<float_array id="id-mesh-2-positions-array" count="486"> -1.0000025033950806 -1.0 -0.07480235397815704 -1.0 1.0 -1.0 -1.0 -1.0 -1.0 -1.0 1.0 -1.0 0.9999974966049194 1.0 -0.07480235397815704 1.0 1.0 -1.0 0.9999974966049194 1.0 -0.07480235397815704 1.0 -1.0 -1.0 1.0 1.0 -1.0 0.9999974966049194 -1.0 -0.07480235397815704 -1.0 -1.0 -1.0 1.0 -1.0 -1.0 1.0 1.0 -1.0 -1.0 -1.0 -1.0 -1.0 1.0 -1.0 -1.0000025033950806 1.0 -0.07480235397815704 0.9999974966049194 -1.0 -0.07480235397815704 0.9999974966049194 1.0 -0.07480235397815704 12.999995231628418 -10.0 0.0999998226761818 12.999999046325684 9.999994277954102 -0.10000022500753403 13.0 9.999994277954102 0.0999998226761818 12.999994277954102 -10.0 -0.10000022500753403 10.999999046325684 9.999994277954102 -0.10000018030405045 12.999999046325684 9.999994277954102 -0.10000022500753403 10.999994277954102 -10.0 -0.10000018030405045 11.0 9.999994277954102 0.09999986737966537 10.999999046325684 9.999994277954102 -0.10000018030405045 10.999995231628418 -10.0 0.09999986737966537 13.0 9.999994277954102 0.0999998226761818 11.0 9.999994277954102 0.09999986737966537 12.999999046325684 9.999994277954102 -0.10000022500753403 11.0 9.999994277954102 0.09999986737966537 13.0 9.999994277954102 0.0999998226761818 12.999994277954102 -10.0 -0.10000022500753403 10.999995231628418 -10.0 0.09999986737966537 10.999994277954102 -10.0 -0.10000018030405045 0.9999977946281433 -9.999996185302734 0.1000000610947609 1.0000020265579224 9.999998092651367 -0.09999998658895493 1.000002384185791 9.999998092651367 0.1000000610947609 0.9999973773956299 -9.999996185302734 -0.09999998658895493 -0.9999977946281433 9.999998092651367 -0.09999994188547134 1.0000020265579224 9.999998092651367 -0.09999998658895493 -1.000002384185791 -9.999996185302734 -0.09999994188547134 -0.9999973773956299 9.999998092651367 0.10000010579824448 -0.9999977946281433 9.999998092651367 -0.09999994188547134 -1.0000020265579224 -9.999996185302734 0.10000010579824448 1.000002384185791 9.999998092651367 0.1000000610947609 -0.9999973773956299 9.999998092651367 0.10000010579824448 1.0000020265579224 9.999998092651367 -0.09999998658895493 -0.9999973773956299 9.999998092651367 0.10000010579824448 1.000002384185791 9.999998092651367 0.1000000610947609 0.9999973773956299 -9.999996185302734 -0.09999998658895493 -1.0000020265579224 -9.999996185302734 0.10000010579824448 -1.000002384185791 -9.999996185302734 -0.09999994188547134 -3.9999990463256836 -2.0139920711517334 -0.05997788906097412 15.999995231628418 -0.5997854471206665 -0.2013997584581375 15.999995231628418 -2.0139989852905273 -0.059978365898132324 -3.9999990463256836 -0.5997785329818726 -0.2013992816209793 15.999995231628418 0.8144280910491943 -0.059978365898132324 15.999995231628418 -0.5997854471206665 -0.2013997584581375 -3.9999990463256836 0.8144350051879883 -0.05997788906097412 15.999995231628418 -0.5997854471206665 0.08144302666187286 15.999995231628418 0.8144280910491943 -0.059978365898132324 15.999995231628418 -0.5997854471206665 0.08144302666187286 -3.9999990463256836 -2.0139920711517334 -0.05997788906097412 15.999995231628418 -2.0139989852905273 -0.059978365898132324 15.999995231628418 -0.5997854471206665 -0.2013997584581375 15.999995231628418 -0.5997854471206665 0.08144302666187286 15.999995231628418 -2.0139989852905273 -0.059978365898132324 -3.9999990463256836 -0.5997785329818726 -0.2013992816209793 -3.9999990463256836 -0.5997785329818726 0.08144350349903107 -3.9999990463256836 0.8144350051879883 -0.05997788906097412 10.999994277954102 -1.0000028610229492 -0.07480259239673615 10.99999713897705 0.9999971389770508 -1.0000001192092896 10.99999713897705 -1.0000028610229492 -1.0000001192092896 10.99999713897705 0.9999971389770508 -1.0000001192092896 12.999994277954102 0.9999971389770508 -0.07480259239673615 12.99999713897705 0.999997079372406 -1.0000001192092896 12.999994277954102 0.9999971389770508 -0.07480259239673615 12.99999713897705 -1.0000028610229492 -1.0000001192092896 12.99999713897705 0.999997079372406 -1.0000001192092896 12.999994277954102 -1.0000028610229492 -0.07480259239673615 10.99999713897705 -1.0000028610229492 -1.0000001192092896 12.99999713897705 -1.0000028610229492 -1.0000001192092896 12.99999713897705 0.999997079372406 -1.0000001192092896 10.99999713897705 -1.0000028610229492 -1.0000001192092896 10.99999713897705 0.9999971389770508 -1.0000001192092896 10.999994277954102 0.9999971389770508 -0.07480259239673615 12.999994277954102 -1.0000028610229492 -0.07480259239673615 12.999994277954102 0.9999971389770508 -0.07480259239673615 -1.0000025033950806 -1.0 -0.07480235397815704 -1.0000025033950806 1.0 -0.07480235397815704 -1.0 1.0 -1.0 -1.0000025033950806 1.0 -0.07480235397815704 0.9999974966049194 1.0 -0.07480235397815704 0.9999974966049194 -1.0 -0.07480235397815704 1.0 -1.0 -1.0 -1.0000025033950806 -1.0 -0.07480235397815704 1.0 -1.0 -1.0 -1.0000025033950806 -1.0 -0.07480235397815704 12.999995231628418 -10.0 0.0999998226761818 12.999994277954102 -10.0 -0.10000022500753403 12.999999046325684 9.999994277954102 -0.10000022500753403 12.999994277954102 -10.0 -0.10000022500753403 10.999994277954102 -10.0 -0.10000018030405045 10.999999046325684 9.999994277954102 -0.10000018030405045 10.999994277954102 -10.0 -0.10000018030405045 10.999995231628418 -10.0 0.09999986737966537 11.0 9.999994277954102 0.09999986737966537 12.999995231628418 -10.0 0.0999998226761818 12.999999046325684 9.999994277954102 -0.10000022500753403 10.999999046325684 9.999994277954102 -0.10000018030405045 11.0 9.999994277954102 0.09999986737966537 12.999994277954102 -10.0 -0.10000022500753403 12.999995231628418 -10.0 0.0999998226761818 10.999995231628418 -10.0 0.09999986737966537 0.9999977946281433 -9.999996185302734 0.1000000610947609 0.9999973773956299 -9.999996185302734 -0.09999998658895493 1.0000020265579224 9.999998092651367 -0.09999998658895493 0.9999973773956299 -9.999996185302734 -0.09999998658895493 -1.000002384185791 -9.999996185302734 -0.09999994188547134 -0.9999977946281433 9.999998092651367 -0.09999994188547134 -1.000002384185791 -9.999996185302734 -0.09999994188547134 -1.0000020265579224 -9.999996185302734 0.10000010579824448 -0.9999973773956299 9.999998092651367 0.10000010579824448 -1.0000020265579224 -9.999996185302734 0.10000010579824448 0.9999977946281433 -9.999996185302734 0.1000000610947609 1.000002384185791 9.999998092651367 0.1000000610947609 1.0000020265579224 9.999998092651367 -0.09999998658895493 -0.9999977946281433 9.999998092651367 -0.09999994188547134 -0.9999973773956299 9.999998092651367 0.10000010579824448 0.9999973773956299 -9.999996185302734 -0.09999998658895493 0.9999977946281433 -9.999996185302734 0.1000000610947609 -1.0000020265579224 -9.999996185302734 0.10000010579824448 -3.9999990463256836 -2.0139920711517334 -0.05997788906097412 -3.9999990463256836 -0.5997785329818726 -0.2013992816209793 15.999995231628418 -0.5997854471206665 -0.2013997584581375 -3.9999990463256836 -0.5997785329818726 -0.2013992816209793 -3.9999990463256836 0.8144350051879883 -0.05997788906097412 15.999995231628418 0.8144280910491943 -0.059978365898132324 -3.9999990463256836 0.8144350051879883 -0.05997788906097412 -3.9999990463256836 -0.5997785329818726 0.08144350349903107 15.999995231628418 -0.5997854471206665 0.08144302666187286 15.999995231628418 -0.5997854471206665 0.08144302666187286 -3.9999990463256836 -0.5997785329818726 0.08144350349903107 -3.9999990463256836 -2.0139920711517334 -0.05997788906097412 15.999995231628418 0.8144280910491943 -0.059978365898132324 -3.9999990463256836 -2.0139920711517334 -0.05997788906097412 10.999994277954102 -1.0000028610229492 -0.07480259239673615 10.999994277954102 0.9999971389770508 -0.07480259239673615 10.99999713897705 0.9999971389770508 -1.0000001192092896 10.99999713897705 0.9999971389770508 -1.0000001192092896 10.999994277954102 0.9999971389770508 -0.07480259239673615 12.999994277954102 0.9999971389770508 -0.07480259239673615 12.999994277954102 0.9999971389770508 -0.07480259239673615 12.999994277954102 -1.0000028610229492 -0.07480259239673615 12.99999713897705 -1.0000028610229492 -1.0000001192092896 12.999994277954102 -1.0000028610229492 -0.07480259239673615 10.999994277954102 -1.0000028610229492 -0.07480259239673615 10.99999713897705 -1.0000028610229492 -1.0000001192092896 12.99999713897705 -1.0000028610229492 -1.0000001192092896 10.999994277954102 -1.0000028610229492 -0.07480259239673615</float_array>
				<technique_common>
				<accessor source="#id-mesh-2-positions-array" count="162" stride="3">
					<param name="X" type="float"/>
					<param name="Y" type="float"/>
					<param name="Z" type="float"/>
				</accessor>
				</technique_common>
			</source>
			<source id="id-mesh-2-normals">
				<float_array id="id-mesh-2-normals-array" count="486"> -1.0 0.0 -2.705795168367331e-06 -1.0 0.0 -2.705795168367331e-06 -1.0 0.0 -2.705795168367331e-06 0.0 1.0 0.0 0.0 1.0 0.0 0.0 1.0 0.0 1.0 0.0 2.705795168367331e-06 1.0 0.0 2.705795168367331e-06 1.0 0.0 2.705795168367331e-06 0.0 -1.0 0.0 0.0 -1.0 0.0 0.0 -1.0 0.0 0.0 0.0 -1.0 0.0 0.0 -1.0 0.0 0.0 -1.0 0.0 0.0 1.0 0.0 0.0 1.0 0.0 0.0 1.0 1.0 -2.3841860752327193e-07 -4.768370672536548e-06 1.0 -2.3841860752327193e-07 -4.768370672536548e-06 1.0 -2.3841860752327193e-07 -4.768370672536548e-06 -1.1920932685427488e-08 5.684343664849991e-15 -1.0 -1.1920932685427488e-08 5.684343664849991e-15 -1.0 -1.1920932685427488e-08 5.684343664849991e-15 -1.0 -1.0 2.384185791015625e-07 4.768370217789197e-06 -1.0 2.384185791015625e-07 4.768370217789197e-06 -1.0 2.384185791015625e-07 4.768370217789197e-06 2.3841865370854975e-08 -5.684343664849991e-15 1.0 2.3841865370854975e-08 -5.684343664849991e-15 1.0 2.3841865370854975e-08 -5.684343664849991e-15 1.0 0.0 0.9999999403953552 0.0 0.0 0.9999999403953552 0.0 0.0 0.9999999403953552 0.0 0.0 -1.0 0.0 0.0 -1.0 0.0 0.0 -1.0 0.0 1.0 -2.3096799850463867e-07 -1.7881388885143679e-06 1.0 -2.3096799850463867e-07 -1.7881388885143679e-06 1.0 -2.3096799850463867e-07 -1.7881388885143679e-06 -2.3841867147211815e-08 5.195845788124806e-15 -1.0 -2.3841867147211815e-08 5.195845788124806e-15 -1.0 -2.3841867147211815e-08 5.195845788124806e-15 -1.0 -1.0 2.2351744632942427e-07 2.086162112391321e-06 -1.0 2.2351744632942427e-07 2.086162112391321e-06 -1.0 2.2351744632942427e-07 2.086162112391321e-06 1.1920933573605907e-08 -5.195845788124806e-15 1.0 1.1920933573605907e-08 -5.195845788124806e-15 1.0 1.1920933573605907e-08 -5.195845788124806e-15 1.0 0.0 1.0 0.0 0.0 1.0 0.0 0.0 1.0 0.0 0.0 -1.0 1.192099603031238e-06 0.0 -1.0 1.192099603031238e-06 0.0 -1.0 1.192099603031238e-06 -5.766433375242741e-08 -0.09950374811887741 -0.9950371384620667 -5.766433375242741e-08 -0.09950374811887741 -0.9950371384620667 -5.766433375242741e-08 -0.09950374811887741 -0.9950371384620667 1.0484423995649195e-08 0.09950374811887741 -0.9950372576713562 1.0484423995649195e-08 0.09950374811887741 -0.9950372576713562 1.0484423995649195e-08 0.09950374811887741 -0.9950372576713562 5.812302816821102e-08 0.09950374811887741 0.9950372576713562 5.812302816821102e-08 0.09950374811887741 0.9950372576713562 5.812302816821102e-08 0.09950374811887741 0.9950372576713562 -1.069919886020898e-08 -0.09950374811887741 0.9950371384620667 -1.069919886020898e-08 -0.09950374811887741 0.9950371384620667 -1.069919886020898e-08 -0.09950374811887741 0.9950371384620667 1.0 0.0 0.0 1.0 0.0 0.0 1.0 0.0 0.0 -1.0 0.0 0.0 -1.0 0.0 0.0 -1.0 0.0 0.0 -1.0 0.0 -3.0923376925784396e-06 -1.0 0.0 -3.0923376925784396e-06 -1.0 0.0 -3.0923376925784396e-06 2.980235080940474e-08 1.0 8.847257128297148e-12 2.980235080940474e-08 1.0 8.847257128297148e-12 2.980235080940474e-08 1.0 8.847257128297148e-12 1.0 0.0 3.0923376925784396e-06 1.0 0.0 3.0923376925784396e-06 1.0 0.0 3.0923376925784396e-06 0.0 -1.0 0.0 0.0 -1.0 0.0 0.0 -1.0 0.0 0.0 0.0 -1.0 0.0 0.0 -1.0 0.0 0.0 -1.0 0.0 0.0 1.0 0.0 0.0 1.0 0.0 0.0 1.0 -0.9999999403953552 0.0 -2.7057944862463046e-06 -0.9999999403953552 0.0 -2.7057944862463046e-06 -0.9999999403953552 0.0 -2.7057944862463046e-06 0.0 1.0 0.0 0.9999999403953552 0.0 2.7057944862463046e-06 0.9999999403953552 0.0 2.7057944862463046e-06 0.9999999403953552 0.0 2.7057944862463046e-06 0.0 -1.0 0.0 0.0 0.0 -1.0 0.0 0.0 1.0 1.0 -3.576279254957626e-07 -4.768370672536548e-06 1.0 -3.576279254957626e-07 -4.768370672536548e-06 1.0 -3.576279254957626e-07 -4.768370672536548e-06 -2.3841865370854975e-08 2.8421718324249954e-15 -1.0 -2.3841865370854975e-08 2.8421718324249954e-15 -1.0 -2.3841865370854975e-08 2.8421718324249954e-15 -1.0 -1.0 3.576279254957626e-07 4.768370672536548e-06 -1.0 3.576279254957626e-07 4.768370672536548e-06 -1.0 3.576279254957626e-07 4.768370672536548e-06 2.3841865370854975e-08 -5.684343664849991e-15 1.0 0.0 1.0 2.728483584901742e-11 0.0 1.0 2.728483584901742e-11 0.0 1.0 2.728483584901742e-11 0.0 -0.9999999403953552 0.0 0.0 -0.9999999403953552 0.0 0.0 -0.9999999403953552 0.0 1.0 -2.2351744632942427e-07 -2.086162112391321e-06 1.0 -2.2351744632942427e-07 -2.086162112391321e-06 1.0 -2.2351744632942427e-07 -2.086162112391321e-06 -2.3841867147211815e-08 5.1292321525374125e-15 -1.0 -2.3841867147211815e-08 5.1292321525374125e-15 -1.0 -2.3841867147211815e-08 5.1292321525374125e-15 -1.0 -1.0 2.309680269263481e-07 1.7881391158880433e-06 -1.0 2.309680269263481e-07 1.7881391158880433e-06 -1.0 2.309680269263481e-07 1.7881391158880433e-06 2.3841867147211815e-08 -5.1292321525374125e-15 1.0 2.3841867147211815e-08 -5.1292321525374125e-15 1.0 2.3841867147211815e-08 -5.1292321525374125e-15 1.0 0.0 1.0 -1.7881344547276967e-06 0.0 1.0 -1.7881344547276967e-06 0.0 1.0 -1.7881344547276967e-06 0.0 -1.0 0.0 0.0 -1.0 0.0 0.0 -1.0 0.0 -5.813546977151418e-08 -0.09950373321771622 -0.9950371980667114 -5.813546977151418e-08 -0.09950373321771622 -0.9950371980667114 -5.813546977151418e-08 -0.09950373321771622 -0.9950371980667114 1.0662815519424385e-08 0.09950375556945801 -0.9950372576713562 1.0662815519424385e-08 0.09950375556945801 -0.9950372576713562 1.0662815519424385e-08 0.09950375556945801 -0.9950372576713562 5.80991006415843e-08 0.09950375556945801 0.9950372576713562 5.80991006415843e-08 0.09950375556945801 0.9950372576713562 5.80991006415843e-08 0.09950375556945801 0.9950372576713562 -1.0681005413459843e-08 -0.09950373321771622 0.9950371980667114 -1.0681005413459843e-08 -0.09950373321771622 0.9950371980667114 -1.0681005413459843e-08 -0.09950373321771622 0.9950371980667114 1.0 0.0 0.0 -1.0 0.0 0.0 -1.0 0.0 -3.092337465204764e-06 -1.0 0.0 -3.092337465204764e-06 -1.0 0.0 -3.092337465204764e-06 0.0 1.0 0.0 0.0 1.0 0.0 0.0 1.0 0.0 1.0 0.0 3.092337465204764e-06 1.0 0.0 3.092337465204764e-06 1.0 0.0 3.092337465204764e-06 0.0 -1.0 8.847248454679768e-12 0.0 -1.0 8.847248454679768e-12 0.0 -1.0 8.847248454679768e-12 0.0 0.0 -1.0 0.0 0.0 1.0</float_array>
				<technique_common>
				<accessor source="#id-mesh-2-normals-array" count="162" stride="3">
					<param name="X" type="float"/>
					<param name="Y" type="float"/>
					<param name="Z" type="float"/>
				</accessor>
				</technique_common>
			</source>
			<vertices id="id-mesh-2-vertices">
				<input semantic="POSITION" source="#id-mesh-2-positions"/>
			</vertices>
			<triangles count="60">
				<input semantic="VERTEX" source="#id-mesh-2-vertices" offset="0"/>
				<input semantic="NORMAL" source="#id-mesh-2-normals" offset="0"/>
				<p> 0 1 2 3 4 5 6 7 8 9 10 11 12 13 14 15 16 17 18 19 20 21 22 23 24 25 26 27 28 29 30 31 32 33 34 35 36 37 38 39 40 41 42 43 44 45 46 47 48 49 50 51 52 53 54 55 56 57 58 59 60 61 62 63 64 65 66 67 68 69 70 71 72 73 74 75 76 77 78 79 80 81 82 83 84 85 86 87 88 89 90 91 92 3 93 4 94 95 96 9 97 10 12 98 13 15 99 16 100 101 102 103 104 105 106 107 108 27 109 28 110 111 112 113 114 115 116 117 118 119 120 121 122 123 124 125 126 127 128 129 130 131 132 133 134 135 136 137 138 139 140 141 142 143 144 145 66 146 67 69 147 70 148 149 150 151 152 153 154 155 156 157 158 159 84 160 85 87 161 88 </p>
			</triangles>
		</mesh>
	</geometry>
</library_geometries>
<library_visual_scenes>
	<visual_scene id="id-scene-1" name="scene">
		<node id="bookstand-col" name="bookstand-col" type="NODE">
			<matrix sid="transform"> 0.025000005960464478 -1.1520233655915035e-08 -1.1520231879558196e-07 -0.1499999761581421 1.6292071691736965e-08 0.01767767407000065 0.1767766922712326 2.622683403785686e-08 0.0 -0.01767767407000065 0.1767766922712326 0.20000000298023224 0.0 0.0 0.0 1.0  </matrix>
			<instance_geometry url="#id-mesh-2">
			</instance_geometry>
		</node>
	</visual_scene>
</library_visual_scenes>
<scene>
	<instance_visual_scene url="#id-scene-1" />
</scene>
</COLLADA>
